Type,"Account Reference",Reference,Date,"Nominal A/C Ref",Details,"Department Code","Net Amount","Tax Code","Tax Amount"
SI,AMC001,Inv45135,18/02/2019,,"Emergency collection of embedded PC. Return to workshop, fully overhaul PC and power supply replacing all degradable components. Deliver back urgently.",38,762.82,11,152.564
SI,STA001,Inv45143,18/02/2019,,"Emergency supply of Unidrive SP Keypad. Engineer called out to locate refurbished unit from stock. Item delivered to site first thing Monday morning.",8,263,11,52.6
